My presentation
…
# Under-loved tidyverse functions

---

## Data

```r
library(tidyverse)

starwars
```

```
## # A tibble: 87 x 13
##    name  height  mass hair_color skin_color eye_color birth_year gender
##    <chr>  <int> <dbl> <chr>      <chr>      <chr>          <dbl> <chr> 
##  1 Luke~    172    77 blond      fair       blue            19   male  
##  2 C-3PO    167    75 <NA>       gold       yellow         112   <NA>  
##  3 R2-D2     96    32 <NA>       white, bl~ red             33   <NA>  
##  4 Dart~    202   136 none       white      yellow          41.9 male  
##  5 Leia~    150    49 brown      light      brown           19   female
##  6 Owen~    178   120 brown, gr~ light      blue            52   male  
##  7 Beru~    165    75 brown      light      blue            47   female
##  8 R5-D4     97    32 <NA>       white, red red             NA   <NA>  
##  9 Bigg~    183    84 black      light      brown           24   male  
## 10 Obi-~    182    77 auburn, w~ fair       blue-gray       57   male  
## # ... with 77 more rows, and 5 more variables: homeworld <chr>,
## #   species <chr>, films <list>, vehicles <list>, starships <list>
```
…
# `count`ing things

---

```r
starwars %>%
    group_by(hair_color, skin_color, eye_color) %>%
    summarize(count = n())
```

```
## # A tibble: 67 x 4
## # Groups:   hair_color, skin_color [?]
##    hair_color    skin_color eye_color count
##    <chr>         <chr>      <chr>     <int>
##  1 auburn        fair       blue          1
##  2 auburn, grey  fair       blue          1
##  3 auburn, white fair       blue-gray     1
##  4 black         blue, grey yellow        1
##  5 black         brown      brown         1
##  6 black         dark       brown         3
##  7 black         dark       dark          1
##  8 black         fair       brown         2
##  9 black         light      brown         1
## 10 black         tan        brown         2
## # ... with 57 more rows
```

---

```r
starwars %>% 
    count(hair_color, skin_color, eye_color)
```

```
## # A tibble: 67 x 4
##    hair_color    skin_color eye_color     n
##    <chr>         <chr>      <chr>     <int>
##  1 auburn        fair       blue          1
##  2 auburn, grey  fair       blue          1
##  3 auburn, white fair       blue-gray     1
##  4 black         blue, grey yellow        1
##  5 black         brown      brown         1
##  6 black         dark       brown         3
##  7 black         dark       dark          1
##  8 black         fair       brown         2
##  9 black         light      brown         1
## 10 black         tan        brown         2
## # ... with 57 more rows
```
…
---

## `separate` out the `rows`

```r
sw %>% 
    separate_rows(starships_combined, sep = "; ")
```

```
## # A tibble: 31 x 2
##    name              starships_combined      
##    <chr>             <chr>                   
##  1 Anakin Skywalker  Trade Federation cruiser
##  2 Anakin Skywalker  Jedi Interceptor        
##  3 Anakin Skywalker  Naboo fighter           
##  4 Arvel Crynyd      A-wing                  
##  5 Biggs Darklighter X-wing                  
##  6 Boba Fett         Slave 1                 
##  7 Chewbacca         Millennium Falcon       
##  8 Chewbacca         Imperial shuttle        
##  9 Darth Maul        Scimitar                
## 10 Darth Vader       TIE Advanced x1         
## # ... with 21 more rows
```

---

## `nest()/unnest()`

```r
sw2 <- starwars %>% select(name, starships)
sw2
```

```
## # A tibble: 87 x 2
##    name               starships
##    <chr>              <list>   
##  1 Luke Skywalker     <chr [2]>
##  2 C-3PO              <chr [0]>
##  3 R2-D2              <chr [0]>
##  4 Darth Vader        <chr [1]>
##  5 Leia Organa        <chr [0]>
##  6 Owen Lars          <chr [0]>
##  7 Beru Whitesun lars <chr [0]>
##  8 R5-D4              <chr [0]>
##  9 Biggs Darklighter  <chr [1]>
## 10 Obi-Wan Kenobi     <chr [5]>
## # ... with 77 more rows
```

---

```r
sw2 %>% 
    unnest(starships)
```

```
## # A tibble: 31 x 2
##    name              starships               
##    <chr>             <chr>                   
##  1 Luke Skywalker    X-wing                  
##  2 Luke Skywalker    Imperial shuttle        
##  3 Darth Vader       TIE Advanced x1         
##  4 Biggs Darklighter X-wing                  
##  5 Obi-Wan Kenobi    Jedi starfighter        
##  6 Obi-Wan Kenobi    Trade Federation cruiser
##  7 Obi-Wan Kenobi    Naboo star skiff        
##  8 Obi-Wan Kenobi    Jedi Interceptor        
##  9 Obi-Wan Kenobi    Belbullab-22 starfighter
## 10 Anakin Skywalker  Trade Federation cruiser
## # ... with 21 more rows
```
…
---

# `count()`

```r
starwars %>% 
    count(hair_color, skin_color, eye_color)
```

```
## # A tibble: 67 x 4
##    hair_color    skin_color eye_color     n
##    <chr>         <chr>      <chr>     <int>
##  1 auburn        fair       blue          1
##  2 auburn, grey  fair       blue          1
##  3 auburn, white fair       blue-gray     1
##  4 black         blue, grey yellow        1
##  5 black         brown      brown         1
##  6 black         dark       brown         3
##  7 black         dark       dark          1
##  8 black         fair       brown         2
##  9 black         light      brown         1
## 10 black         tan        brown         2
## # ... with 57 more rows
```
…
